{
    "_links": {
        "self": {
            "href": "http:\/\/default\/news\/university-open-new-campus?_format=hal_json"
        },
        "type": {
            "href": "http:\/\/drupal.org\/rest\/type\/node\/news"
        },
        "http:\/\/drupal.org\/rest\/relation\/node\/news\/uid": [
            {
                "href": "http:\/\/default\/user\/1?_format=hal_json"
            }
        ],
        "http:\/\/drupal.org\/rest\/relation\/node\/news\/revision_uid": [
            {
                "href": "http:\/\/default\/user\/1?_format=hal_json"
            }
        ],
        "http:\/\/drupal.org\/rest\/relation\/node\/news\/field_news_categories": [
            {
                "href": "http:\/\/default\/taxonomy\/term\/29?_format=hal_json"
            },
            {
                "href": "http:\/\/default\/taxonomy\/term\/30?_format=hal_json"
            }
        ],
        "http:\/\/drupal.org\/rest\/relation\/node\/news\/field_news_image": [
            {
                "href": "http:\/\/default\/sites\/default\/files\/sky-clouds-garden-school_7_1.jpg"
            }
        ],
        "http:\/\/drupal.org\/rest\/relation\/node\/news\/field_news_related": [
            {
                "href": "http:\/\/default\/news\/faculty-groups-promote-increased-stem-research?_format=hal_json"
            }
        ]
    },
    "nid": [
        {
            "value": 17
        }
    ],
    "uuid": [
        {
            "value": "1913edce-bba1-42ea-9306-7c3547e831b7"
        }
    ],
    "vid": [
        {
            "value": 17
        }
    ],
    "type": [
        {
            "target_id": "news"
        }
    ],
    "status": [
        {
            "value": true
        }
    ],
    "title": [
        {
            "value": "University to open new campus"
        }
    ],
    "_embedded": {
        "http:\/\/drupal.org\/rest\/relation\/node\/news\/uid": [
            {
                "_links": {
                    "self": {
                        "href": "http:\/\/default\/user\/1?_format=hal_json"
                    },
                    "type": {
                        "href": "http:\/\/drupal.org\/rest\/type\/user\/user"
                    }
                },
                "uuid": [
                    {
                        "value": "5aef157e-2748-4e6d-8ee5-a7320424a21e"
                    }
                ]
            }
        ],
        "http:\/\/drupal.org\/rest\/relation\/node\/news\/revision_uid": [
            {
                "_links": {
                    "self": {
                        "href": "http:\/\/default\/user\/1?_format=hal_json"
                    },
                    "type": {
                        "href": "http:\/\/drupal.org\/rest\/type\/user\/user"
                    }
                },
                "uuid": [
                    {
                        "value": "5aef157e-2748-4e6d-8ee5-a7320424a21e"
                    }
                ]
            }
        ],
        "http:\/\/drupal.org\/rest\/relation\/node\/news\/field_news_categories": [
            {
                "_links": {
                    "self": {
                        "href": "http:\/\/default\/taxonomy\/term\/29?_format=hal_json"
                    },
                    "type": {
                        "href": "http:\/\/drupal.org\/rest\/type\/taxonomy_term\/news_categories"
                    }
                },
                "uuid": [
                    {
                        "value": "11d8d41a-106d-47ad-a6f6-6da2ec25d75b"
                    }
                ]
            },
            {
                "_links": {
                    "self": {
                        "href": "http:\/\/default\/taxonomy\/term\/30?_format=hal_json"
                    },
                    "type": {
                        "href": "http:\/\/drupal.org\/rest\/type\/taxonomy_term\/news_categories"
                    }
                },
                "uuid": [
                    {
                        "value": "0731ab67-3708-4235-afff-d51e141121e5"
                    }
                ]
            }
        ],
        "http:\/\/drupal.org\/rest\/relation\/node\/news\/field_news_image": [
            {
                "_links": {
                    "self": {
                        "href": "http:\/\/default\/sites\/default\/files\/sky-clouds-garden-school_7_1.jpg"
                    },
                    "type": {
                        "href": "http:\/\/drupal.org\/rest\/type\/file\/file"
                    }
                },
                "uuid": [
                    {
                        "value": "4b936a4f-9fa1-4119-9452-c41a656315eb"
                    }
                ],
                "alt": "Prestigious school",
                "title": "Nunc non quam massa.",
                "width": "3578",
                "height": "2451"
            }
        ],
        "http:\/\/drupal.org\/rest\/relation\/node\/news\/field_news_related": [
            {
                "_links": {
                    "self": {
                        "href": "http:\/\/default\/news\/faculty-groups-promote-increased-stem-research?_format=hal_json"
                    },
                    "type": {
                        "href": "http:\/\/drupal.org\/rest\/type\/node\/news"
                    }
                },
                "uuid": [
                    {
                        "value": "b8215089-cdf4-4d7d-8f12-e80c69a84f7b"
                    }
                ]
            }
        ]
    },
    "created": [
        {
            "value": 1493803873
        }
    ],
    "changed": [
        {
            "value": 1496160870
        }
    ],
    "promote": [
        {
            "value": true
        }
    ],
    "sticky": [
        {
            "value": false
        }
    ],
    "revision_timestamp": [
        {
            "value": 1494265564
        }
    ],
    "revision_translation_affected": [
        {
            "value": true
        }
    ],
    "path": [
        {
            "alias": "\/news\/university-open-new-campus",
            "pid": 17
        }
    ],
    "body": [
        {
            "value": "<p>Aenean elementum fermentum scelerisque. Nunc non quam massa. Proin lacinia placerat ligula sit amet fringilla. Suspendisse potenti. Morbi laoreet imperdiet metus, in condimentum nibh mattis vel. Ut semper fringilla libero vitae tristique.<\/p>\r\n\r\n<p>Nam ut ornare est. Vivamus laoreet odio eget dolor pretium aliquam. Mauris ultricies fringilla nunc, ac interdum magna porttitor nec. Vivamus turpis lectus, finibus a lectus sit amet, vestibulum elementum erat. Morbi at justo accumsan, fermentum orci et, consectetur purus.<\/p>\r\n\r\n<blockquote>\r\n<p>Morbi cursus volutpat rhoncus.<\/p>\r\n<\/blockquote>\r\n\r\n<p>Aliquam vitae quam quis augue tristique elementum. Integer nec nunc quis nisl rutrum suscipit. Phasellus tellus felis, imperdiet quis risus et, eleifend volutpat ex.<\/p>\r\n\r\n<p>Aliquam sit amet ligula id nisi dapibus mollis. Phasellus quis dapibus ligula. Cras neque odio, dignissim non hendrerit id, lobortis at augue. Mauris porta ipsum vitae purus maximus auctor. Mauris a iaculis sem. Morbi sit amet ligula et quam tincidunt semper. Nunc ac purus non sapien semper condimentum. Aliquam erat volutpat.<\/p>\r\n\r\n<p>Phasellus eu imperdiet tellus, ut tempus leo. Etiam hendrerit, odio vitae finibus ultrices, ipsum dolor pulvinar risus, id malesuada risus mi ut lacus. Pellentesque tincidunt gravida nunc sit amet dapibus. Nulla gravida accumsan neque, et dignissim libero egestas ac. Integer augue neque, lacinia et tincidunt in, aliquam ut urna. Duis commodo neque eget nisi gravida mollis.<\/p>\r\n\r\n<p>Fusce dapibus eros nec urna rutrum, id varius felis laoreet. Duis sed suscipit risus. Sed blandit porta metus, blandit efficitur nunc faucibus quis. Nulla id euismod dolor, sit amet tincidunt est. Donec eget cursus sem. Cras et faucibus nulla. Aliquam eget iaculis lacus, ac lacinia diam. Pellentesque luctus aliquam pulvinar. Praesent vel dignissim massa, vitae ullamcorper felis. Donec at risus non tortor condimentum posuere quis pulvinar velit.<\/p>\r\n\r\n<p class=\"text-align-right\">&nbsp;<\/p>\r\n",
            "format": "rich_text",
            "summary": ""
        }
    ],
    "field_news_date": [
        {
            "value": "2016-10-10"
        }
    ],
    "field_news_featured": [
        {
            "value": false
        }
    ]
}
