{
    "_links": {
        "self": {
            "href": "http:\/\/default\/news\/faculty-groups-promote-increased-stem-research?_format=hal_json"
        },
        "type": {
            "href": "http:\/\/drupal.org\/rest\/type\/node\/news"
        },
        "http:\/\/drupal.org\/rest\/relation\/node\/news\/uid": [
            {
                "href": "http:\/\/default\/user\/1?_format=hal_json"
            }
        ],
        "http:\/\/drupal.org\/rest\/relation\/node\/news\/revision_uid": [
            {
                "href": "http:\/\/default\/user\/1?_format=hal_json"
            }
        ],
        "http:\/\/drupal.org\/rest\/relation\/node\/news\/field_news_categories": [
            {
                "href": "http:\/\/default\/taxonomy\/term\/31?_format=hal_json"
            }
        ],
        "http:\/\/drupal.org\/rest\/relation\/node\/news\/field_news_image": [
            {
                "href": "http:\/\/default\/sites\/default\/files\/pexels-photo-207691_7_1.jpeg"
            }
        ]
    },
    "nid": [
        {
            "value": 15
        }
    ],
    "uuid": [
        {
            "value": "b8215089-cdf4-4d7d-8f12-e80c69a84f7b"
        }
    ],
    "vid": [
        {
            "value": 15
        }
    ],
    "type": [
        {
            "target_id": "news"
        }
    ],
    "status": [
        {
            "value": true
        }
    ],
    "title": [
        {
            "value": "Faculty groups promote increased STEM research"
        }
    ],
    "_embedded": {
        "http:\/\/drupal.org\/rest\/relation\/node\/news\/uid": [
            {
                "_links": {
                    "self": {
                        "href": "http:\/\/default\/user\/1?_format=hal_json"
                    },
                    "type": {
                        "href": "http:\/\/drupal.org\/rest\/type\/user\/user"
                    }
                },
                "uuid": [
                    {
                        "value": "5aef157e-2748-4e6d-8ee5-a7320424a21e"
                    }
                ]
            }
        ],
        "http:\/\/drupal.org\/rest\/relation\/node\/news\/revision_uid": [
            {
                "_links": {
                    "self": {
                        "href": "http:\/\/default\/user\/1?_format=hal_json"
                    },
                    "type": {
                        "href": "http:\/\/drupal.org\/rest\/type\/user\/user"
                    }
                },
                "uuid": [
                    {
                        "value": "5aef157e-2748-4e6d-8ee5-a7320424a21e"
                    }
                ]
            }
        ],
        "http:\/\/drupal.org\/rest\/relation\/node\/news\/field_news_categories": [
            {
                "_links": {
                    "self": {
                        "href": "http:\/\/default\/taxonomy\/term\/31?_format=hal_json"
                    },
                    "type": {
                        "href": "http:\/\/drupal.org\/rest\/type\/taxonomy_term\/news_categories"
                    }
                },
                "uuid": [
                    {
                        "value": "76ac9385-baff-401f-9337-d4dbecf4af81"
                    }
                ]
            }
        ],
        "http:\/\/drupal.org\/rest\/relation\/node\/news\/field_news_image": [
            {
                "_links": {
                    "self": {
                        "href": "http:\/\/default\/sites\/default\/files\/pexels-photo-207691_7_1.jpeg"
                    },
                    "type": {
                        "href": "http:\/\/drupal.org\/rest\/type\/file\/file"
                    }
                },
                "uuid": [
                    {
                        "value": "ef5545cc-b139-42a9-b840-9cdfb5ef4e68"
                    }
                ],
                "alt": "Empty Classroom",
                "title": "bringing illumination to the Korean people and the world.",
                "width": "1920",
                "height": "1371"
            }
        ]
    },
    "created": [
        {
            "value": 1493921736
        }
    ],
    "changed": [
        {
            "value": 1496160766
        }
    ],
    "promote": [
        {
            "value": false
        }
    ],
    "sticky": [
        {
            "value": false
        }
    ],
    "revision_timestamp": [
        {
            "value": 1494265564
        }
    ],
    "revision_translation_affected": [
        {
            "value": true
        }
    ],
    "path": [
        {
            "alias": "\/news\/faculty-groups-promote-increased-stem-research",
            "pid": 11
        }
    ],
    "body": [
        {
            "value": "<p>Aenean elementum fermentum scelerisque. Nunc non quam massa. Proin lacinia placerat ligula sit amet fringilla. Suspendisse potenti. Morbi laoreet imperdiet metus, in condimentum nibh mattis vel. Ut semper fringilla libero vitae tristique.<\/p>\r\n\r\n<p>Nam ut ornare est. Vivamus laoreet odio eget dolor pretium aliquam. Mauris ultricies fringilla nunc, ac interdum magna porttitor nec. Vivamus turpis lectus, finibus a lectus sit amet, vestibulum elementum erat.<\/p>\r\n\r\n<blockquote>\r\n<p>Morbi at justo accumsan, fermentum orci et, consectetur purus.<\/p>\r\n<\/blockquote>\r\n\r\n<p>Morbi cursus volutpat rhoncus. Aliquam vitae quam quis augue tristique elementum. Integer nec nunc quis nisl rutrum suscipit. Phasellus tellus felis, imperdiet quis risus et, eleifend volutpat ex.<\/p>\r\n\r\n<p>Aliquam sit amet ligula id nisi dapibus mollis. Phasellus quis dapibus ligula. Cras neque odio, dignissim non hendrerit id, lobortis at augue. Mauris porta ipsum vitae purus maximus auctor. Mauris a iaculis sem. Morbi sit amet ligula et quam tincidunt semper. Nunc ac purus non sapien semper condimentum. Aliquam erat volutpat.<\/p>\r\n\r\n<p>Phasellus eu imperdiet tellus, ut tempus leo. Etiam hendrerit, odio vitae finibus ultrices, ipsum dolor pulvinar risus, id malesuada risus mi ut lacus. Pellentesque tincidunt gravida nunc sit amet dapibus. Nulla gravida accumsan neque, et dignissim libero egestas ac. Integer augue neque, lacinia et tincidunt in, aliquam ut urna.<\/p>\r\n\r\n<p class=\"text-align-right\">&nbsp;<\/p>\r\n",
            "format": "rich_text",
            "summary": ""
        }
    ],
    "field_news_date": [
        {
            "value": "2017-01-30"
        }
    ],
    "field_news_featured": [
        {
            "value": false
        }
    ]
}
