{
    "_links": {
        "self": {
            "href": "http:\/\/default\/story\/full-court-press?_format=hal_json"
        },
        "type": {
            "href": "http:\/\/drupal.org\/rest\/type\/node\/story"
        },
        "http:\/\/drupal.org\/rest\/relation\/node\/story\/uid": [
            {
                "href": "http:\/\/default\/user\/1?_format=hal_json"
            }
        ],
        "http:\/\/drupal.org\/rest\/relation\/node\/story\/revision_uid": [
            {
                "href": "http:\/\/default\/user\/1?_format=hal_json"
            }
        ],
        "http:\/\/drupal.org\/rest\/relation\/node\/story\/field_story_image": [
            {
                "href": "http:\/\/default\/sites\/default\/files\/pexels-photo-325682_1.jpeg"
            }
        ]
    },
    "nid": [
        {
            "value": 4
        }
    ],
    "uuid": [
        {
            "value": "f953f8b5-0957-427a-a03e-be40fb126d03"
        }
    ],
    "vid": [
        {
            "value": 4
        }
    ],
    "type": [
        {
            "target_id": "story"
        }
    ],
    "status": [
        {
            "value": true
        }
    ],
    "title": [
        {
            "value": "Full-court press"
        }
    ],
    "_embedded": {
        "http:\/\/drupal.org\/rest\/relation\/node\/story\/uid": [
            {
                "_links": {
                    "self": {
                        "href": "http:\/\/default\/user\/1?_format=hal_json"
                    },
                    "type": {
                        "href": "http:\/\/drupal.org\/rest\/type\/user\/user"
                    }
                },
                "uuid": [
                    {
                        "value": "5aef157e-2748-4e6d-8ee5-a7320424a21e"
                    }
                ]
            }
        ],
        "http:\/\/drupal.org\/rest\/relation\/node\/story\/revision_uid": [
            {
                "_links": {
                    "self": {
                        "href": "http:\/\/default\/user\/1?_format=hal_json"
                    },
                    "type": {
                        "href": "http:\/\/drupal.org\/rest\/type\/user\/user"
                    }
                },
                "uuid": [
                    {
                        "value": "5aef157e-2748-4e6d-8ee5-a7320424a21e"
                    }
                ]
            }
        ],
        "http:\/\/drupal.org\/rest\/relation\/node\/story\/field_story_image": [
            {
                "_links": {
                    "self": {
                        "href": "http:\/\/default\/sites\/default\/files\/pexels-photo-325682_1.jpeg"
                    },
                    "type": {
                        "href": "http:\/\/drupal.org\/rest\/type\/file\/file"
                    }
                },
                "uuid": [
                    {
                        "value": "4e77ab08-62db-420c-9fea-44df1954d01b"
                    }
                ],
                "alt": "H Bolger",
                "title": "",
                "width": "1920",
                "height": "1279"
            }
        ]
    },
    "created": [
        {
            "value": 1492994248
        }
    ],
    "changed": [
        {
            "value": 1496099168
        }
    ],
    "promote": [
        {
            "value": true
        }
    ],
    "sticky": [
        {
            "value": false
        }
    ],
    "revision_timestamp": [
        {
            "value": 1493413717
        }
    ],
    "revision_translation_affected": [
        {
            "value": true
        }
    ],
    "path": [
        {
            "alias": "\/story\/full-court-press",
            "pid": 24
        }
    ],
    "body": [
        {
            "value": "<p>Mauris metus nisl, porttitor vel consequat vel, vehicula vitae ligula. Phasellus auctor lacus risus, sed dignissim orci elementum ut. Vestibulum ante ipsum primis in faucibus orci luctus et ultrices posuere cubilia Curae; Donec rutrum hendrerit justo, id mattis eros pellentesque nec. Sed pretium felis erat, quis consectetur leo rhoncus id. Quisque fermentum pellentesque auctor. Nunc justo est, aliquet sed libero vitae, eleifend congue mauris. Fusce in sem sit amet nulla pharetra venenatis ut ac eros. Suspendisse in bibendum sapien, in facilisis sapien. Etiam mollis tempus tellus vel scelerisque. Nam sit amet imperdiet mauris.<\/p>\r\n\r\n<p>Vivamus varius dapibus lacus, a suscipit lacus sodales vitae. Morbi in volutpat metus, vitae sollicitudin turpis. Nunc fermentum quam elit, a sagittis elit convallis quis. Aliquam erat volutpat. Morbi sit amet odio eu mauris malesuada porttitor. Etiam posuere nisl accumsan scelerisque ultrices.<\/p>\r\n\r\n<blockquote>\r\n<p>Maecenas malesuada sagittis vestibulum.<\/p>\r\n<\/blockquote>\r\n\r\n<p>Donec facilisis convallis eros eget aliquet. Sed sodales condimentum arcu. Curabitur ornare tincidunt pellentesque. Pellentesque dapibus nisi eros, eu vehicula lectus dapibus vel. Mauris nisl urna, suscipit ac velit at, porttitor volutpat nibh. Phasellus vestibulum ante massa, non auctor velit ultrices quis. Quisque dolor elit, venenatis sed erat id, lobortis lacinia sem.<\/p>\r\n\r\n<p>Cras scelerisque orci quis vestibulum sagittis. Praesent interdum sem vitae tincidunt sodales. Interdum et malesuada fames ac ante ipsum primis in faucibus. Proin erat nulla, aliquet et auctor at, semper at ipsum. Donec sit amet sagittis nisl, tincidunt imperdiet arcu. Etiam efficitur dolor vitae vehicula lacinia. Donec scelerisque, ante nec facilisis varius, dolor leo bibendum purus, sit amet rutrum sapien felis vel arcu. Donec ultrices orci a nibh cursus aliquam at a ligula. Curabitur ac dui diam.<\/p>\r\n\r\n<p class=\"text-align-right\">&nbsp;<\/p>\r\n",
            "format": "rich_text",
            "summary": ""
        }
    ],
    "field_story_caption": [
        {
            "value": "<p>Associate Justice and scientist H&nbsp;Bolger.<\/p>\r\n",
            "format": "rich_text"
        }
    ],
    "field_story_subtitle": [
        {
            "value": "Associate Justice, California Supreme Court."
        }
    ]
}
